Ib Versuche/V03b Drehpendel/TEK00003.CSV

Model,TBS1072C
Firmware Version,v2015-08-04-prequal4ch70_v1.3

Point Format,Y
Horizontal Units,S
Horizontal Scale,2
Sample Interval,0.016
Filter Frequency,2e+08
Record Length,2000
Gating,0.0% to 100.0%
Probe Attenuation,10
Vertical Units,V
Vertical Offset,0
Vertical Scale,20
Label,
TIME,CH2
-1.600e+01,-103.4
-1.598e+01,-103.4
-1.597e+01,-103.4
-1.595e+01,-103.4
-1.594e+01,-103.4
-1.592e+01,-103.4
-1.590e+01,-103.4
-1.589e+01,-103.4
-1.587e+01,-103.4
-1.586e+01,-103.4
-1.584e+01,-103.4
-1.582e+01,-103.4
-1.581e+01,-103.4
-1.579e+01,-103.4
-1.578e+01,-103.4
-1.576e+01,-103.4
-1.574e+01,-103.4
-1.573e+01,-103.4
-1.571e+01,-103.4
-1.570e+01,-103.4
-1.568e+01,-103.4
-1.566e+01,-103.4
-1.565e+01,-103.4
-1.563e+01,-103.4
-1.562e+01,-103.4
-1.560e+01,-103.4
-1.558e+01,-103.4
-1.557e+01,-103.4
-1.555e+01,-103.4
-1.554e+01,-103.4
-1.552e+01,-103.4
-1.550e+01,-103.4
-1.549e+01,-103.4
-1.547e+01,-103.4
-1.546e+01,-103.4
-1.544e+01,-103.4
-1.542e+01,-103.4
-1.541e+01,-103.4
-1.539e+01,-103.4
-1.538e+01,-103.4
-1.536e+01,-103.4
-1.534e+01,-103.4
-1.533e+01,-103.4
-1.531e+01,-103.4
-1.530e+01,-103.4
-1.528e+01,-103.4
-1.526e+01,-103.4
-1.525e+01,-103.4
-1.523e+01,-103.4
-1.522e+01,-103.4
-1.520e+01,-103.4
-1.518e+01,-103.4
-1.517e+01,-103.4
-1.515e+01,-103.4
-1.514e+01,-103.4
-1.512e+01,-103.4
-1.510e+01,-103.4
-1.509e+01,-103.4
-1.507e+01,-103.4
-1.506e+01,-103.4
-1.504e+01,-103.4
-1.502e+01,-103.4
-1.501e+01,-103.4
-1.499e+01,-103.4
-1.498e+01,-103.4
-1.496e+01,-103.4
-1.494e+01,-103.4
-1.493e+01,-103.4
-1.491e+01,-103.4
-1.490e+01,-103.4
-1.488e+01,-103.4
-1.486e+01,-103.4
-1.485e+01,-103.4
-1.483e+01,-103.4
-1.482e+01,-103.4
-1.480e+01,-103.4
-1.478e+01,-103.4
-1.477e+01,-0.2
-1.475e+01,-0.2
-1.474e+01,-0.2
-1.472e+01,-0.2
-1.470e+01,-0.2
-1.469e+01,-0.2
-1.467e+01,-0.2
-1.466e+01,-0.2
-1.464e+01,-0.2
-1.462e+01,-0.2
-1.461e+01,-0.2
-1.459e+01,0.6
-1.458e+01,-0.2
-1.456e+01,-0.2
-1.454e+01,-0.2
-1.453e+01,-0.2
-1.451e+01,-0.2
-1.450e+01,-0.2
-1.448e+01,-0.2
-1.446e+01,-0.2
-1.445e+01,-0.2
-1.443e+01,-0.2
-1.442e+01,-0.2
-1.440e+01,-0.2
-1.438e+01,-0.2
-1.437e+01,-0.2
-1.435e+01,-0.2
-1.434e+01,-0.2
-1.432e+01,-1
-1.430e+01,-0.2
-1.429e+01,-0.2
-1.427e+01,-0.2
-1.426e+01,-0.2
-1.424e+01,-0.2
-1.422e+01,-0.2
-1.421e+01,-0.2
-1.419e+01,-0.2
-1.418e+01,-0.2
-1.416e+01,-0.2
-1.414e+01,-0.2
-1.413e+01,-0.2
-1.411e+01,-0.2
-1.410e+01,-0.2
-1.408e+01,-0.2
-1.406e+01,-0.2
-1.405e+01,-0.2
-1.403e+01,-0.2
-1.402e+01,-0.2
-1.400e+01,-0.2
-1.398e+01,-0.2
-1.397e+01,-0.2
-1.395e+01,-0.2
-1.394e+01,-0.2
-1.392e+01,-0.2
-1.390e+01,-0.2
-1.389e+01,-0.2
-1.387e+01,-0.2
-1.386e+01,-0.2
-1.384e+01,-0.2
-1.382e+01,-0.2
-1.381e+01,-0.2
-1.379e+01,-0.2
-1.378e+01,-0.2
-1.376e+01,0.6
-1.374e+01,-0.2
-1.373e+01,-0.2
-1.371e+01,-0.2
-1.370e+01,-0.2
-1.368e+01,-0.2
-1.366e+01,-0.2
-1.365e+01,-0.2
-1.363e+01,-0.2
-1.362e+01,-0.2
-1.360e+01,-0.2
-1.358e+01,-0.2
-1.357e+01,-0.2
-1.355e+01,-0.2
-1.354e+01,-0.2
-1.352e+01,-0.2
-1.350e+01,-0.2
-1.349e+01,-0.2
-1.347e+01,-0.2
-1.346e+01,-0.2
-1.344e+01,-0.2
-1.342e+01,-0.2
-1.341e+01,-0.2
-1.339e+01,-0.2
-1.338e+01,-0.2
-1.336e+01,-0.2
-1.334e+01,-0.2
-1.333e+01,-0.2
-1.331e+01,-0.2
-1.330e+01,-0.2
-1.328e+01,-0.2
-1.326e+01,0.6
-1.325e+01,-0.2
-1.323e+01,-0.2
-1.322e+01,-0.2
-1.320e+01,-0.2
-1.318e+01,-0.2
-1.317e+01,-0.2
-1.315e+01,-0.2
-1.314e+01,-0.2
-1.312e+01,-0.2
-1.310e+01,-0.2
-1.309e+01,-0.2
-1.307e+01,-0.2
-1.306e+01,-0.2
-1.304e+01,-0.2
-1.302e+01,-0.2
-1.301e+01,-0.2
-1.299e+01,-1
-1.298e+01,-0.2
-1.296e+01,-0.2
-1.294e+01,-0.2
-1.293e+01,-0.2
-1.291e+01,-0.2
-1.290e+01,-0.2
-1.288e+01,-0.2
-1.286e+01,-0.2
-1.285e+01,-0.2
-1.283e+01,0.6
-1.282e+01,0.6
-1.280e+01,1.4
-1.278e+01,0.6
-1.277e+01,1.4
-1.275e+01,2.2
-1.274e+01,3
-1.272e+01,3
-1.270e+01,3.8
-1.269e+01,3.8
-1.267e+01,4.6
-1.266e+01,5.4
-1.264e+01,6.2
-1.262e+01,6.2
-1.261e+01,7
-1.259e+01,7.8
-1.258e+01,8.6
-1.256e+01,9.4
-1.254e+01,10.2
-1.253e+01,11
-1.251e+01,11.8
-1.250e+01,12.6
-1.248e+01,13.4
-1.246e+01,14.2
-1.245e+01,15
-1.243e+01,15.8
-1.242e+01,16.6
-1.240e+01,17.4
-1.238e+01,17.4
-1.237e+01,18.2
-1.235e+01,19
-1.234e+01,19.8
-1.232e+01,19.8
-1.230e+01,21.4
-1.229e+01,21.4
-1.227e+01,22.2
-1.226e+01,22.2
-1.224e+01,23
-1.222e+01,23.8
-1.221e+01,23.8
-1.219e+01,24.6
-1.218e+01,24.6
-1.216e+01,25.4
-1.214e+01,26.2
-1.213e+01,26.2
-1.211e+01,27
-1.210e+01,27
-1.208e+01,28.6
-1.206e+01,28.6
-1.205e+01,28.6
-1.203e+01,29.4
-1.202e+01,29.4
-1.200e+01,30.2
-1.198e+01,30.2
-1.197e+01,31
-1.195e+01,31
-1.194e+01,31.8
-1.192e+01,31.8
-1.190e+01,32.6
-1.189e+01,32.6
-1.187e+01,32.6
-1.186e+01,33.4
-1.184e+01,33.4
-1.182e+01,33.4
-1.181e+01,33.4
-1.179e+01,34.2
-1.178e+01,34.2
-1.176e+01,34.2
-1.174e+01,34.2
-1.173e+01,35
-1.171e+01,35
-1.170e+01,35
-1.168e+01,35.8
-1.166e+01,35.8
-1.165e+01,35.8
-1.163e+01,35
-1.162e+01,35.8
-1.160e+01,36.6
-1.158e+01,35.8
-1.157e+01,36.6
-1.155e+01,36.6
-1.154e+01,36.6
-1.152e+01,36.6
-1.150e+01,36.6
-1.149e+01,36.6
-1.147e+01,35.8
-1.146e+01,36.6
-1.144e+01,36.6
-1.142e+01,36.6
-1.141e+01,36.6
-1.139e+01,37.4
-1.138e+01,36.6
-1.136e+01,36.6
-1.134e+01,37.4
-1.133e+01,37.4
-1.131e+01,36.6
-1.130e+01,36.6
-1.128e+01,36.6
-1.126e+01,36.6
-1.125e+01,36.6
-1.123e+01,36.6
-1.122e+01,37.4
-1.120e+01,37.4
-1.118e+01,36.6
-1.117e+01,36.6
-1.115e+01,36.6
-1.114e+01,36.6
-1.112e+01,36.6
-1.110e+01,35.8
-1.109e+01,35.8
-1.107e+01,35.8
-1.106e+01,35
-1.104e+01,35
-1.102e+01,33.4
-1.101e+01,33.4
-1.099e+01,32.6
-1.098e+01,31.8
-1.096e+01,30.2
-1.094e+01,29.4
-1.093e+01,28.6
-1.091e+01,27
-1.090e+01,25.4
-1.088e+01,23
-1.086e+01,22.2
-1.085e+01,20.6
-1.083e+01,19
-1.082e+01,17.4
-1.080e+01,15.8
-1.078e+01,14.2
-1.077e+01,12.6
-1.075e+01,10.2
-1.074e+01,8.6
-1.072e+01,7
-1.070e+01,4.6
-1.069e+01,3
-1.067e+01,1.4
-1.066e+01,-1
-1.064e+01,-1.8
-1.062e+01,-4.2
-1.061e+01,-5.8
-1.059e+01,-8.2
-1.058e+01,-9
-1.056e+01,-11.4
-1.054e+01,-13
-1.053e+01,-14.6
-1.051e+01,-17
-1.050e+01,-18.6
-1.048e+01,-19.4
-1.046e+01,-21.8
-1.045e+01,-23.4
-1.043e+01,-24.2
-1.042e+01,-25.8
-1.040e+01,-27.4
-1.038e+01,-28.2
-1.037e+01,-29.8
-1.035e+01,-30.6
-1.034e+01,-31.4
-1.032e+01,-33
-1.030e+01,-33.8
-1.029e+01,-33.8
-1.027e+01,-35.4
-1.026e+01,-35.4
-1.024e+01,-36.2
-1.022e+01,-36.2
-1.021e+01,-37
-1.019e+01,-36.2
-1.018e+01,-37
-1.016e+01,-37
-1.014e+01,-37
-1.013e+01,-37
-1.011e+01,-36.2
-1.010e+01,-36.2
-1.008e+01,-35.4
-1.006e+01,-34.6
-1.005e+01,-33.8
-1.003e+01,-33.8
-1.002e+01,-32.2
-1.000e+01,-31.4
-9.984e+00,-30.6
-9.968e+00,-29
-9.952e+00,-28.2
-9.936e+00,-27.4
-9.920e+00,-25.8
-9.904e+00,-24.2
-9.888e+00,-22.6
-9.872e+00,-21.8
-9.856e+00,-19.4
-9.840e+00,-17.8
-9.824e+00,-16.2
-9.808e+00,-14.6
-9.792e+00,-13
-9.776e+00,-11.4
-9.760e+00,-9
-9.744e+00,-7.4
-9.728e+00,-5.8
-9.712e+00,-4.2
-9.696e+00,-1.8
-9.680e+00,-0.2
-9.664e+00,1.4
-9.648e+00,3
-9.632e+00,4.6
-9.616e+00,6.2
-9.600e+00,7.8
-9.584e+00,9.4
-9.568e+00,11
-9.552e+00,13.4
-9.536e+00,15
-9.520e+00,16.6
-9.504e+00,18.2
-9.488e+00,19.8
-9.472e+00,20.6
-9.456e+00,22.2
-9.440e+00,23
-9.424e+00,24.6
-9.408e+00,26.2
-9.392e+00,27
-9.376e+00,27.8
-9.360e+00,29.4
-9.344e+00,30.2
-9.328e+00,31
-9.312e+00,31.8
-9.296e+00,32.6
-9.280e+00,32.6
-9.264e+00,33.4
-9.248e+00,33.4
-9.232e+00,32.6
-9.216e+00,33.4
-9.200e+00,33.4
-9.184e+00,33.4
-9.168e+00,33.4
-9.152e+00,32.6
-9.136e+00,32.6
-9.120e+00,32.6
-9.104e+00,31
-9.088e+00,30.2
-9.072e+00,29.4
-9.056e+00,28.6
-9.040e+00,27.8
-9.024e+00,27
-9.008e+00,25.4
-8.992e+00,24.6
-8.976e+00,23
-8.960e+00,21.4
-8.944e+00,20.6
-8.928e+00,19
-8.912e+00,17.4
-8.896e+00,15.8
-8.880e+00,15
-8.864e+00,12.6
-8.848e+00,11
-8.832e+00,9.4
-8.816e+00,7.8
-8.800e+00,6.2
-8.784e+00,4.6
-8.768e+00,3
-8.752e+00,0.6
-8.736e+00,-0.2
-8.720e+00,-1.8
-8.704e+00,-4.2
-8.688e+00,-5
-8.672e+00,-7.4
-8.656e+00,-9
-8.640e+00,-10.6
-8.624e+00,-12.2
-8.608e+00,-13.8
-8.592e+00,-15.4
-8.576e+00,-17
-8.560e+00,-18.6
-8.544e+00,-19.4
-8.528e+00,-21
-8.512e+00,-22.6
-8.496e+00,-24.2
-8.480e+00,-25
-8.464e+00,-25.8
-8.448e+00,-27.4
-8.432e+00,-28.2
-8.416e+00,-29
-8.400e+00,-29.8
-8.384e+00,-30.6
-8.368e+00,-31.4
-8.352e+00,-32.2
-8.336e+00,-32.2
-8.320e+00,-33
-8.304e+00,-33
-8.288e+00,-33.8
-8.272e+00,-33.8
-8.256e+00,-33.8
-8.240e+00,-33.8
-8.224e+00,-33.8
-8.208e+00,-33.8
-8.192e+00,-33
-8.176e+00,-33
-8.160e+00,-32.2
-8.144e+00,-32.2
-8.128e+00,-31.4
-8.112e+00,-30.6
-8.096e+00,-29.8
-8.080e+00,-29
-8.064e+00,-27.4
-8.048e+00,-26.6
-8.032e+00,-25.8
-8.016e+00,-24.2
-8.000e+00,-24.2
-7.984e+00,-21.8
-7.968e+00,-21
-7.952e+00,-19.4
-7.936e+00,-17.8
-7.920e+00,-16.2
-7.904e+00,-14.6
-7.888e+00,-13
-7.872e+00,-12.2
-7.856e+00,-9.8
-7.840e+00,-8.2
-7.824e+00,-6.6
-7.808e+00,-5
-7.792e+00,-4.2
-7.776e+00,-1.8
-7.760e+00,-1
-7.744e+00,1.4
-7.728e+00,2.2
-7.712e+00,4.6
-7.696e+00,6.2
-7.680e+00,7.8
-7.664e+00,8.6
-7.648e+00,10.2
-7.632e+00,12.6
-7.616e+00,13.4
-7.600e+00,15
-7.584e+00,16.6
-7.568e+00,17.4
-7.552e+00,19
-7.536e+00,20.6
-7.520e+00,21.4
-7.504e+00,23
-7.488e+00,23
-7.472e+00,24.6
-7.456e+00,25.4
-7.440e+00,27
-7.424e+00,27.8
-7.408e+00,28.6
-7.392e+00,28.6
-7.376e+00,29.4
-7.360e+00,30.2
-7.344e+00,30.2
-7.328e+00,30.2
-7.312e+00,30.2
-7.296e+00,31
-7.280e+00,31
-7.264e+00,30.2
-7.248e+00,30.2
-7.232e+00,29.4
-7.216e+00,29.4
-7.200e+00,29.4
-7.184e+00,28.6
-7.168e+00,27.8
-7.152e+00,27
-7.136e+00,26.2
-7.120e+00,25.4
-7.104e+00,24.6
-7.088e+00,23
-7.072e+00,22.2
-7.056e+00,21.4
-7.040e+00,19.8
-7.024e+00,19
-7.008e+00,17.4
-6.992e+00,15.8
-6.976e+00,15
-6.960e+00,13.4
-6.944e+00,11.8
-6.928e+00,10.2
-6.912e+00,8.6
-6.896e+00,7
-6.880e+00,5.4
-6.864e+00,3.8
-6.848e+00,2.2
-6.832e+00,0.6
-6.816e+00,-0.2
-6.800e+00,-1.8
-6.784e+00,-4.2
-6.768e+00,-5
-6.752e+00,-6.6
-6.736e+00,-8.2
-6.720e+00,-9.8
-6.704e+00,-11.4
-6.688e+00,-13
-6.672e+00,-13.8
-6.656e+00,-14.6
-6.640e+00,-17
-6.624e+00,-18.6
-6.608e+00,-19.4
-6.592e+00,-21
-6.576e+00,-21.8
-6.560e+00,-23.4
-6.544e+00,-24.2
-6.528e+00,-25.8
-6.512e+00,-25.8
-6.496e+00,-27.4
-6.480e+00,-27.4
-6.464e+00,-28.2
-6.448e+00,-29
-6.432e+00,-29
-6.416e+00,-29.8
-6.400e+00,-30.6
-6.384e+00,-29.8
-6.368e+00,-31.4
-6.352e+00,-30.6
-6.336e+00,-30.6
-6.320e+00,-30.6
-6.304e+00,-30.6
-6.288e+00,-30.6
-6.272e+00,-30.6
-6.256e+00,-29.8
-6.240e+00,-29.8
-6.224e+00,-29.8
-6.208e+00,-29
-6.192e+00,-28.2
-6.176e+00,-27.4
-6.160e+00,-25.8
-6.144e+00,-25.8
-6.128e+00,-24.2
-6.112e+00,-23.4
-6.096e+00,-22.6
-6.080e+00,-21
-6.064e+00,-20.2
-6.048e+00,-18.6
-6.032e+00,-17
-6.016e+00,-16.2
-6.000e+00,-14.6
-5.984e+00,-13
-5.968e+00,-11.4
-5.952e+00,-10.6
-5.936e+00,-9
-5.920e+00,-7.4
-5.904e+00,-5.8
-5.888e+00,-4.2
-5.872e+00,-3.4
-5.856e+00,-1.8
-5.840e+00,-0.2
-5.824e+00,1.4
-5.808e+00,3
-5.792e+00,3.8
-5.776e+00,5.4
-5.760e+00,6.2
-5.744e+00,8.6
-5.728e+00,10.2
-5.712e+00,11
-5.696e+00,12.6
-5.680e+00,14.2
-5.664e+00,15
-5.648e+00,16.6
-5.632e+00,18.2
-5.616e+00,19
-5.600e+00,20.6
-5.584e+00,21.4
-5.568e+00,22.2
-5.552e+00,23
-5.536e+00,23.8
-5.520e+00,24.6
-5.504e+00,25.4
-5.488e+00,26.2
-5.472e+00,26.2
-5.456e+00,27
-5.440e+00,27
-5.424e+00,27.8
-5.408e+00,27
-5.392e+00,27.8
-5.376e+00,27.8
-5.360e+00,27.8
-5.344e+00,28.6
-5.328e+00,27.8
-5.312e+00,27.8
-5.296e+00,27
-5.280e+00,26.2
-5.264e+00,26.2
-5.248e+00,25.4
-5.232e+00,24.6
-5.216e+00,23.8
-5.200e+00,23
-5.184e+00,22.2
-5.168e+00,21.4
-5.152e+00,19.8
-5.136e+00,19.8
-5.120e+00,18.2
-5.104e+00,17.4
-5.088e+00,15.8
-5.072e+00,14.2
-5.056e+00,13.4
-5.040e+00,11.8
-5.024e+00,10.2
-5.008e+00,8.6
-4.992e+00,7.8
-4.976e+00,6.2
-4.960e+00,4.6
-4.944e+00,3
-4.928e+00,1.4
-4.912e+00,0.6
-4.896e+00,-1
-4.880e+00,-2.6
-4.864e+00,-3.4
-4.848e+00,-5
-4.832e+00,-6.6
-4.816e+00,-8.2
-4.800e+00,-9.8
-4.784e+00,-10.6
-4.768e+00,-12.2
-4.752e+00,-13
-4.736e+00,-14.6
-4.720e+00,-15.4
-4.704e+00,-17
-4.688e+00,-18.6
-4.672e+00,-19.4
-4.656e+00,-20.2
-4.640e+00,-21
-4.624e+00,-22.6
-4.608e+00,-23.4
-4.592e+00,-24.2
-4.576e+00,-25
-4.560e+00,-25
-4.544e+00,-25.8
-4.528e+00,-26.6
-4.512e+00,-26.6
-4.496e+00,-27.4
-4.480e+00,-27.4
-4.464e+00,-28.2
-4.448e+00,-28.2
-4.432e+00,-28.2
-4.416e+00,-28.2
-4.400e+00,-28.2
-4.384e+00,-28.2
-4.368e+00,-28.2
-4.352e+00,-27.4
-4.336e+00,-27.4
-4.320e+00,-26.6
-4.304e+00,-26.6
-4.288e+00,-25.8
-4.272e+00,-25
-4.256e+00,-24.2
-4.240e+00,-23.4
-4.224e+00,-22.6
-4.208e+00,-21.8
-4.192e+00,-21
-4.176e+00,-20.2
-4.160e+00,-18.6
-4.144e+00,-17.8
-4.128e+00,-17
-4.112e+00,-15.4
-4.096e+00,-13.8
-4.080e+00,-13
-4.064e+00,-12.2
-4.048e+00,-10.6
-4.032e+00,-9
-4.016e+00,-7.4
-4.000e+00,-5.8
-3.984e+00,-5
-3.968e+00,-4.2
-3.952e+00,-1.8
-3.936e+00,-1
-3.920e+00,-0.2
-3.904e+00,1.4
-3.888e+00,3
-3.872e+00,4.6
-3.856e+00,5.4
-3.840e+00,7
-3.824e+00,7.8
-3.808e+00,9.4
-3.792e+00,11
-3.776e+00,11.8
-3.760e+00,13.4
-3.744e+00,14.2
-3.728e+00,15.8
-3.712e+00,16.6
-3.696e+00,18.2
-3.680e+00,19
-3.664e+00,19.8
-3.648e+00,20.6
-3.632e+00,21.4
-3.616e+00,22.2
-3.600e+00,23
-3.584e+00,23
-3.568e+00,23.8
-3.552e+00,23.8
-3.536e+00,24.6
-3.520e+00,25.4
-3.504e+00,25.4
-3.488e+00,25.4
-3.472e+00,26.2
-3.456e+00,25.4
-3.440e+00,25.4
-3.424e+00,25.4
-3.408e+00,25.4
-3.392e+00,24.6
-3.376e+00,25.4
-3.360e+00,23
-3.344e+00,23
-3.328e+00,22.2
-3.312e+00,22.2
-3.296e+00,21.4
-3.280e+00,20.6
-3.264e+00,19.8
-3.248e+00,19
-3.232e+00,18.2
-3.216e+00,17.4
-3.200e+00,15.8
-3.184e+00,15
-3.168e+00,14.2
-3.152e+00,12.6
-3.136e+00,11.8
-3.120e+00,10.2
-3.104e+00,8.6
-3.088e+00,7.8
-3.072e+00,6.2
-3.056e+00,4.6
-3.040e+00,3.8
-3.024e+00,2.2
-3.008e+00,1.4
-2.992e+00,-0.2
-2.976e+00,-1
-2.960e+00,-2.6
-2.944e+00,-4.2
-2.928e+00,-5
-2.912e+00,-6.6
-2.896e+00,-8.2
-2.880e+00,-9
-2.864e+00,-9.8
-2.848e+00,-11.4
-2.832e+00,-13
-2.816e+00,-13.8
-2.800e+00,-14.6
-2.784e+00,-16.2
-2.768e+00,-17
-2.752e+00,-17.8
-2.736e+00,-18.6
-2.720e+00,-19.4
-2.704e+00,-21
-2.688e+00,-21.8
-2.672e+00,-22.6
-2.656e+00,-22.6
-2.640e+00,-23.4
-2.624e+00,-23.4
-2.608e+00,-24.2
-2.592e+00,-25
-2.576e+00,-25
-2.560e+00,-25
-2.544e+00,-25.8
-2.528e+00,-25.8
-2.512e+00,-25.8
-2.496e+00,-25.8
-2.480e+00,-25.8
-2.464e+00,-25.8
-2.448e+00,-25
-2.432e+00,-25
-2.416e+00,-25
-2.400e+00,-24.2
-2.384e+00,-23.4
-2.368e+00,-23.4
-2.352e+00,-22.6
-2.336e+00,-21.8
-2.320e+00,-21
-2.304e+00,-20.2
-2.288e+00,-19.4
-2.272e+00,-18.6
-2.256e+00,-17.8
-2.240e+00,-17
-2.224e+00,-15.4
-2.208e+00,-14.6
-2.192e+00,-13
-2.176e+00,-12.2
-2.160e+00,-11.4
-2.144e+00,-9.8
-2.128e+00,-8.2
-2.112e+00,-7.4
-2.096e+00,-5.8
-2.080e+00,-5
-2.064e+00,-3.4
-2.048e+00,-3.4
-2.032e+00,-1.8
-2.016e+00,-0.2
-2.000e+00,1.4
-1.984e+00,2.2
-1.968e+00,3
-1.952e+00,4.6
-1.936e+00,5.4
-1.920e+00,7
-1.904e+00,7.8
-1.888e+00,9.4
-1.872e+00,10.2
-1.856e+00,11.8
-1.840e+00,12.6
-1.824e+00,14.2
-1.808e+00,15
-1.792e+00,15.8
-1.776e+00,16.6
-1.760e+00,17.4
-1.744e+00,18.2
-1.728e+00,19
-1.712e+00,19.8
-1.696e+00,20.6
-1.680e+00,21.4
-1.664e+00,21.4
-1.648e+00,22.2
-1.632e+00,22.2
-1.616e+00,23
-1.600e+00,23
-1.584e+00,23
-1.568e+00,23
-1.552e+00,23
-1.536e+00,23
-1.520e+00,23.8
-1.504e+00,23
-1.488e+00,23
-1.472e+00,23
-1.456e+00,22.2
-1.440e+00,21.4
-1.424e+00,21.4
-1.408e+00,19.8
-1.392e+00,19.8
-1.376e+00,19
-1.360e+00,18.2
-1.344e+00,18.2
-1.328e+00,17.4
-1.312e+00,16.6
-1.296e+00,15
-1.280e+00,14.2
-1.264e+00,13.4
-1.248e+00,12.6
-1.232e+00,11
-1.216e+00,9.4
-1.200e+00,8.6
-1.184e+00,7
-1.168e+00,6.2
-1.152e+00,5.4
-1.136e+00,4.6
-1.120e+00,3
-1.104e+00,1.4
-1.088e+00,0.6
-1.072e+00,-0.2
-1.056e+00,-1.8
-1.040e+00,-3.4
-1.024e+00,-4.2
-1.008e+00,-5
-9.920e-01,-6.6
-9.760e-01,-7.4
-9.600e-01,-9
-9.440e-01,-9.8
-9.280e-01,-10.6
-9.120e-01,-12.2
-8.960e-01,-13
-8.800e-01,-13.8
-8.640e-01,-15.4
-8.480e-01,-16.2
-8.320e-01,-17
-8.160e-01,-17.8
-8.000e-01,-18.6
-7.840e-01,-19.4
-7.680e-01,-20.2
-7.520e-01,-21
-7.360e-01,-21
-7.200e-01,-21.8
-7.040e-01,-22.6
-6.880e-01,-22.6
-6.720e-01,-23.4
-6.560e-01,-23.4
-6.400e-01,-23.4
-6.240e-01,-24.2
-6.080e-01,-23.4
-5.920e-01,-23.4
-5.760e-01,-23.4
-5.600e-01,-23.4
-5.440e-01,-23.4
-5.280e-01,-22.6
-5.120e-01,-22.6
-4.960e-01,-21.8
-4.800e-01,-21.8
-4.640e-01,-21.8
-4.480e-01,-21
-4.320e-01,-20.2
-4.160e-01,-19.4
-4.000e-01,-18.6
-3.840e-01,-18.6
-3.680e-01,-17.8
-3.520e-01,-17
-3.360e-01,-15.4
-3.200e-01,-14.6
-3.040e-01,-13.8
-2.880e-01,-13
-2.720e-01,-11.4
-2.560e-01,-10.6
-2.400e-01,-9.8
-2.240e-01,-8.2
-2.080e-01,-7.4
-1.920e-01,-5.8
-1.760e-01,-5.8
-1.600e-01,-4.2
-1.440e-01,-2.6
-1.280e-01,-1.8
-1.120e-01,-0.2
-9.600e-02,0.6
-8.000e-02,1.4
-6.400e-02,2.2
-4.800e-02,3
-3.200e-02,4.6
-1.600e-02,5.4
1.410e-14,7
1.600e-02,7.8
3.200e-02,9.4
4.800e-02,10.2
6.400e-02,11
8.000e-02,12.6
9.600e-02,13.4
1.120e-01,14.2
1.280e-01,15
1.440e-01,15
1.600e-01,16.6
1.760e-01,17.4
1.920e-01,18.2
2.080e-01,19
2.240e-01,19
2.400e-01,19.8
2.560e-01,19.8
2.720e-01,20.6
2.880e-01,19.8
3.040e-01,20.6
3.200e-01,21.4
3.360e-01,21.4
3.520e-01,21.4
3.680e-01,21.4
3.840e-01,21.4
4.000e-01,20.6
4.160e-01,20.6
4.320e-01,19.8
4.480e-01,20.6
4.640e-01,20.6
4.800e-01,19.8
4.960e-01,19
5.120e-01,19
5.280e-01,18.2
5.440e-01,17.4
5.600e-01,16.6
5.760e-01,15.8
5.920e-01,15
6.080e-01,14.2
6.240e-01,13.4
6.400e-01,12.6
6.560e-01,11.8
6.720e-01,10.2
6.880e-01,9.4
7.040e-01,7.8
7.200e-01,7
7.360e-01,6.2
7.520e-01,5.4
7.680e-01,3.8
7.840e-01,3
8.000e-01,2.2
8.160e-01,0.6
8.320e-01,-0.2
8.480e-01,-1.8
8.640e-01,-2.6
8.800e-01,-3.4
8.960e-01,-4.2
9.120e-01,-5.8
9.280e-01,-6.6
9.440e-01,-7.4
9.600e-01,-8.2
9.760e-01,-9.8
9.920e-01,-10.6
1.008e+00,-12.2
1.024e+00,-12.2
1.040e+00,-13
1.056e+00,-14.6
1.072e+00,-15.4
1.088e+00,-15.4
1.104e+00,-17
1.120e+00,-17.8
1.136e+00,-17.8
1.152e+00,-18.6
1.168e+00,-19.4
1.184e+00,-19.4
1.200e+00,-20.2
1.216e+00,-20.2
1.232e+00,-20.2
1.248e+00,-21
1.264e+00,-21
1.280e+00,-21
1.296e+00,-21.8
1.312e+00,-21.8
1.328e+00,-21.8
1.344e+00,-21
1.360e+00,-21
1.376e+00,-21
1.392e+00,-21
1.408e+00,-20.2
1.424e+00,-20.2
1.440e+00,-19.4
1.456e+00,-19.4
1.472e+00,-18.6
1.488e+00,-17.8
1.504e+00,-17.8
1.520e+00,-17
1.536e+00,-16.2
1.552e+00,-15.4
1.568e+00,-14.6
1.584e+00,-13.8
1.600e+00,-13
1.616e+00,-12.2
1.632e+00,-10.6
1.648e+00,-9.8
1.664e+00,-9
1.680e+00,-8.2
1.696e+00,-6.6
1.712e+00,-5.8
1.728e+00,-5
1.744e+00,-3.4
1.760e+00,-2.6
1.776e+00,-1.8
1.792e+00,-1
1.808e+00,-0.2
1.824e+00,1.4
1.840e+00,1.4
1.856e+00,3
1.872e+00,4.6
1.888e+00,4.6
1.904e+00,6.2
1.920e+00,6.2
1.936e+00,7.8
1.952e+00,9.4
1.968e+00,10.2
1.984e+00,11
2.000e+00,11.8
2.016e+00,12.6
2.032e+00,13.4
2.048e+00,14.2
2.064e+00,15
2.080e+00,15
2.096e+00,16.6
2.112e+00,16.6
2.128e+00,17.4
2.144e+00,18.2
2.160e+00,18.2
2.176e+00,19
2.192e+00,19
2.208e+00,19
2.224e+00,19
2.240e+00,19.8
2.256e+00,19.8
2.272e+00,19
2.288e+00,19.8
2.304e+00,19.8
2.320e+00,19
2.336e+00,19
2.352e+00,19
2.368e+00,19
2.384e+00,17.4
2.400e+00,17.4
2.416e+00,17.4
2.432e+00,16.6
2.448e+00,15.8
2.464e+00,15
2.480e+00,14.2
2.496e+00,14.2
2.512e+00,12.6
2.528e+00,11.8
2.544e+00,11
2.560e+00,11
2.576e+00,9.4
2.592e+00,8.6
2.608e+00,7.8
2.624e+00,7
2.640e+00,6.2
2.656e+00,4.6
2.672e+00,3.8
2.688e+00,3
2.704e+00,2.2
2.720e+00,1.4
2.736e+00,-0.2
2.752e+00,-1
2.768e+00,-1.8
2.784e+00,-3.4
2.800e+00,-3.4
2.816e+00,-5
2.832e+00,-5.8
2.848e+00,-6.6
2.864e+00,-7.4
2.880e+00,-8.2
2.896e+00,-9.8
2.912e+00,-10.6
2.928e+00,-11.4
2.944e+00,-12.2
2.960e+00,-13
2.976e+00,-13.8
2.992e+00,-13.8
3.008e+00,-15.4
3.024e+00,-15.4
3.040e+00,-16.2
3.056e+00,-17
3.072e+00,-17
3.088e+00,-17.8
3.104e+00,-17.8
3.120e+00,-18.6
3.136e+00,-19.4
3.152e+00,-19.4
3.168e+00,-19.4
3.184e+00,-19.4
3.200e+00,-19.4
3.216e+00,-19.4
3.232e+00,-19.4
3.248e+00,-19.4
3.264e+00,-20.2
3.280e+00,-19.4
3.296e+00,-19.4
3.312e+00,-18.6
3.328e+00,-18.6
3.344e+00,-18.6
3.360e+00,-17.8
3.376e+00,-17
3.392e+00,-16.2
3.408e+00,-16.2
3.424e+00,-15.4
3.440e+00,-14.6
3.456e+00,-13.8
3.472e+00,-13
3.488e+00,-12.2
3.504e+00,-11.4
3.520e+00,-10.6
3.536e+00,-9.8
3.552e+00,-9
3.568e+00,-8.2
3.584e+00,-7.4
3.600e+00,-6.6
3.616e+00,-5.8
3.632e+00,-4.2
3.648e+00,-3.4
3.664e+00,-2.6
3.680e+00,-1.8
3.696e+00,-1
3.712e+00,0.6
3.728e+00,0.6
3.744e+00,1.4
3.760e+00,3
3.776e+00,3.8
3.792e+00,4.6
3.808e+00,5.4
3.824e+00,6.2
3.840e+00,7
3.856e+00,8.6
3.872e+00,9.4
3.888e+00,10.2
3.904e+00,11
3.920e+00,11.8
3.936e+00,12.6
3.952e+00,12.6
3.968e+00,14.2
3.984e+00,14.2
4.000e+00,15
4.016e+00,15
